Tensorflow in R 系列(3) : 房价预测 Boston housing price · Tony Duan
…
c(train_data, train_labels) %<-% boston_housing$train
c(test_data, test_labels) %<-% boston_housing$test

2.数据探索

library(tibble)

column_names <- c('CRIM', 'ZN', 'INDUS', 'CHAS', 'NOX', 'RM', 'AGE', 
                  'DIS', 'RAD', 'TAX', 'PTRATIO', 'B', 'LSTAT')
train_df <- as_tibble(train_data)
colnames(train_df) <- column_names
train_df

## # A tibble: 404 x 13
##      CRIM    ZN INDUS  CHAS   NOX    RM   AGE   DIS   RAD   TAX PTRATIO
##     <dbl> <dbl> <dbl> <dbl> <dbl> <dbl> <dbl> <dbl> <dbl> <dbl>   <dbl>
##  1 1.23     0    8.14     0 0.538  6.14  91.7  3.98     4   307    21  
##  2 0.0218  82.5  2.03     0 0.415  7.61  15.7  6.27     2   348    14.7
##  3 4.90     0   18.1      0 0.631  4.97 100    1.33    24   666    20.2
##  4 0.0396   0    5.19     0 0.515  6.04  34.5  5.99     5   224    20.2
##  5 3.69     0   18.1      0 0.713  6.38  88.4  2.57    24   666    20.2
##  6 0.284    0    7.38     0 0.493  5.71  74.3  4.72     5   287    19.6
##  7 9.19     0   18.1      0 0.7    5.54 100    1.58    24   666    20.2
##  8 4.10     0   19.6      0 0.871  5.47 100    1.41     5   403    14.7
##  9 2.16     0   19.6      0 0.871  5.63 100    1.52     5   403    14.7
## 10 1.63     0   21.9      0 0.624  5.02 100    1.44     4   437    21.2
## # ... with 394 more rows, and 2 more variables: B <dbl>, LSTAT <dbl>
…
