kaggle kernel系列:方便面 · Tony Duan
…
brand和country 交叉表。可见country 为产地。

ramen_ratings %>%mutate(country=fct_lump(country,20))%>%
   count(brand,country, sort = TRUE)%>%mutate(percent = n / sum(n))

## # A tibble: 523 x 4
##    brand         country           n percent
##    <chr>         <fct>         <int>   <dbl>
##  1 Nissin        Japan           134  0.0421
##  2 Nissin        United States   105  0.0330
##  3 Samyang Foods South Korea      80  0.0252
##  4 Nissin        Hong Kong        79  0.0248
##  5 Paldo         South Korea      70  0.0220
##  6 Myojo         Japan            63  0.0198
##  7 Nongshim      South Korea      60  0.0189
##  8 Mama          Thailand         58  0.0182
##  9 Maruchan      United States    56  0.0176
## 10 Indomie       Indonesia        54  0.0170
## # ... with 513 more rows

ramen_ratings%>%filter(country=='Hong Kong')

## # A tibble: 155 x 6
##    review_number brand   variety                       style country  stars
##            <int> <chr>   <chr>                         <chr> <chr>    <dbl>
##  1          3171 Doll    Bowl Noodle Satay & Beef Fla~ Bowl  Hong Ko~  4.25
##  2          3143 Sau Tao Tom Yum Kung Flavour Rice Ve~ Pack  Hong Ko~  3.75
##  3          3044 Sau Tao Laksa Flavour Ramen           Pack  Hong Ko~  4.5 
##  4          3019 Sau Tao Tom Yum Kung Flavour Ramen    Pack  Hong Ko~  5   
##  5          2928 Nissin  Cup Noodles Light Spicy Seaf~ Cup   Hong Ko~  3.25
##  6          2903 Nissin  Demae Ramen Sesame Oil Flavo~ Pack  Hong Ko~  3.5 
##  7          2806 Nissin  Cup Noodles Light Seafood Fl~ Cup   Hong Ko~  5   
##  8          2802 Nissin  Cup Noodles Black Pepper Cra~ Pack  Hong Ko~  5   
##  9          2767 Nissin  Cup Noodles Spicy Seafood Fl~ Pack  Hong Ko~  5   
## 10          2750 Nissin  Cup Noodles Tom Yum Goong Fl~ Pack  Hong Ko~  5   
## # ... with 145 more rows

ramen_ratings%>%arrange(desc(stars))

## # A tibble: 3,180 x 6
##    review_number brand       variety                 style country    stars
##            <int> <chr>       <chr>                   <chr> <chr>      <dbl>
##  1          3176 Maruchan    Gotsumori Shio Yakisoba Tray  Japan          5
##  2          3173 Sapporo Ic~ Momosan Ramen Tonkotsu  Pack  United St~     5
##  3          3161 Sakurai Fo~ Vegetarian Soymilk Spi~ Pack  Japan          5
##  4          3160 Mazendo     Noodles With Chili Mal~ Pack  Taiwan         5
##  5          3157 TIEasy      Traditional Scallion S~ Pack  Taiwan         5
##  6          3156 Nongshim    Spicy Gamjatang         Pack  South Kor~     5
##  7          3153 Maison de ~ Ramen Gout BBQ Coree    Cup   France         5
##  8          3152 Maruchan    QTTA Curry Ramen        Cup   Japan          5
##  9          3151 Hakubaku    Shoyu Soy Sauce Flavor~ Pack  United St~     5
## 10          3148 Hakubaku    Tonkotsu Pork Flavor R~ Pack  United St~     5
## # ... with 3,170 more rows
…
