Data Discovery:Global Plastic Waste · Tony Duan
…
导入数据

coast_vs_waste <- read_csv("https://raw.githubusercontent.com/rfordatascience/tidytuesday/master/data/2019/2019-05-21/coastal-population-vs-mismanaged-plastic.csv")

mismanaged_vs_gdp <- read_csv("https://raw.githubusercontent.com/rfordatascience/tidytuesday/master/data/2019/2019-05-21/per-capita-mismanaged-plastic-waste-vs-gdp-per-capita.csv")

waste_vs_gdp <- read_csv("https://raw.githubusercontent.com/rfordatascience/tidytuesday/master/data/2019/2019-05-21/per-capita-plastic-waste-vs-gdp-per-capita.csv")

# data source shttps://ourworldindata.org/plastic-pollution
global_plastics_production=read_csv("https://raw.githubusercontent.com/TonyFly3000/kaggle/master/global-plastics-production.csv")

global_plastics_production

## # A tibble: 66 x 4
##    Entity Code      Year `Global plastics production (million tonnes) (ton~
##    <chr>  <chr>    <int>                                              <int>
##  1 World  OWID_WRL  1950                                            2000000
##  2 World  OWID_WRL  1951                                            2000000
##  3 World  OWID_WRL  1952                                            2000000
##  4 World  OWID_WRL  1953                                            3000000
##  5 World  OWID_WRL  1954                                            3000000
##  6 World  OWID_WRL  1955                                            4000000
##  7 World  OWID_WRL  1956                                            5000000
##  8 World  OWID_WRL  1957                                            5000000
##  9 World  OWID_WRL  1958                                            6000000
## 10 World  OWID_WRL  1959                                            7000000
## # ... with 56 more rows
…
